simon/SimonTest.vcd
$date
	Tue Nov 24 03:33:10 2015
$end
$version
	Icarus Verilog
$end
$timescale
	100ps
$end
$scope module ButtonDebouncer $end
$var wire 1 ! noisy_btn $end
$var wire 1 " sysclk $end
$var reg 1 # clean_btn $end
$var reg 32 $ count [31:0] $end
$var reg 1 % xnew $end
$upscope $end
$scope module SimonTest $end
$var wire 21 & loopIndex [20:0] $end
$var wire 3 ' mode_leds [2:0] $end
$var wire 1 ( of $end
$var wire 4 ) pattern_leds [3:0] $end
$var reg 1 * clk $end
$var integer 32 + currentIndex [31:0] $end
$var reg 8 , errors [7:0] $end
$var integer 32 - i [31:0] $end
$var integer 32 . idx [31:0] $end
$var integer 32 / ii [31:0] $end
$var integer 32 0 j [31:0] $end
$var integer 32 1 k [31:0] $end
$var reg 1 2 level $end
$var reg 4 3 pattern [3:0] $end
$var reg 1 4 rst $end
$var reg 1 5 sysclk $end
$scope module simon $end
$var wire 1 6 i_clr $end
$var wire 1 7 i_inc $end
$var wire 1 8 last_it $end
$var wire 1 9 level $end
$var wire 3 : mode_leds [2:0] $end
$var wire 1 ; n_inc $end
$var wire 1 < n_tc $end
$var wire 1 = of_out $end
$var wire 1 > of_set $end
$var wire 1 ? p_correct $end
$var wire 1 @ p_reflect $end
$var wire 1 A p_write $end
$var wire 4 B pattern [3:0] $end
$var wire 4 C pattern_leds [3:0] $end
$var wire 1 D pclk $end
$var wire 1 E psi_ld $end
$var wire 1 F reset $end
$var wire 1 G rst $end
$var wire 1 H sysclk $end
$var wire 1 I uclk $end
$var wire 1 J valid $end
$scope module dpath $end
$var wire 1 I clk $end
$var wire 1 6 i_clr $end
$var wire 1 7 i_inc $end
$var wire 6 K k [5:0] $end
$var wire 1 9 level $end
$var wire 1 ; n_inc $end
$var wire 1 > of_set $end
$var wire 1 @ p_reflect $end
$var wire 1 A p_write $end
$var wire 4 L pattern [3:0] $end
$var wire 1 E psi_ld $end
$var wire 4 M read_pattern [3:0] $end
$var wire 1 F reset $end
$var reg 6 N i [5:0] $end
$var reg 1 O last_it $end
$var reg 1 P lvl $end
$var reg 6 Q n [5:0] $end
$var reg 1 R n_tc $end
$var reg 1 S of $end
$var reg 1 T of_out $end
$var reg 1 U p_correct $end
$var reg 4 V pattern_leds [3:0] $end
$var reg 6 W psi [5:0] $end
$var reg 1 X valid $end
$scope module mem $end
$var wire 1 I clk $end
$var wire 6 Y r_addr [5:0] $end
$var wire 4 Z r_data [3:0] $end
$var wire 1 F rst $end
$var wire 6 [ w_addr [5:0] $end
$var wire 4 \ w_data [3:0] $end
$var wire 1 A w_en $end
$scope begin wport[0] $end
$upscope $end
$scope begin wport[1] $end
$upscope $end
$scope begin wport[2] $end
$upscope $end
$scope begin wport[3] $end
$upscope $end
$scope begin wport[4] $end
$upscope $end
$scope begin wport[5] $end
$upscope $end
$scope begin wport[6] $end
$upscope $end
$scope begin wport[7] $end
$upscope $end
$scope begin wport[8] $end
$upscope $end
$scope begin wport[9] $end
$upscope $end
$scope begin wport[10] $end
$upscope $end
$scope begin wport[11] $end
$upscope $end
$scope begin wport[12] $end
$upscope $end
$scope begin wport[13] $end
$upscope $end
$scope begin wport[14] $end
$upscope $end
$scope begin wport[15] $end
$upscope $end
$scope begin wport[16] $end
$upscope $end
$scope begin wport[17] $end
$upscope $end
$scope begin wport[18] $end
$upscope $end
$scope begin wport[19] $end
$upscope $end
$scope begin wport[20] $end
$upscope $end
$scope begin wport[21] $end
$upscope $end
$scope begin wport[22] $end
$upscope $end
$scope begin wport[23] $end
$upscope $end
$scope begin wport[24] $end
$upscope $end
$scope begin wport[25] $end
$upscope $end
$scope begin wport[26] $end
$upscope $end
$scope begin wport[27] $end
$upscope $end
$scope begin wport[28] $end
$upscope $end
$scope begin wport[29] $end
$upscope $end
$scope begin wport[30] $end
$upscope $end
$scope begin wport[31] $end
$upscope $end
$scope begin wport[32] $end
$upscope $end
$scope begin wport[33] $end
$upscope $end
$scope begin wport[34] $end
$upscope $end
$scope begin wport[35] $end
$upscope $end
$scope begin wport[36] $end
$upscope $end
$scope begin wport[37] $end
$upscope $end
$scope begin wport[38] $end
$upscope $end
$scope begin wport[39] $end
$upscope $end
$scope begin wport[40] $end
$upscope $end
$scope begin wport[41] $end
$upscope $end
$scope begin wport[42] $end
$upscope $end
$scope begin wport[43] $end
$upscope $end
$scope begin wport[44] $end
$upscope $end
$scope begin wport[45] $end
$upscope $end
$scope begin wport[46] $end
$upscope $end
$scope begin wport[47] $end
$upscope $end
$scope begin wport[48] $end
$upscope $end
$scope begin wport[49] $end
$upscope $end
$scope begin wport[50] $end
$upscope $end
$scope begin wport[51] $end
$upscope $end
$scope begin wport[52] $end
$upscope $end
$scope begin wport[53] $end
$upscope $end
$scope begin wport[54] $end
$upscope $end
$scope begin wport[55] $end
$upscope $end
$scope begin wport[56] $end
$upscope $end
$scope begin wport[57] $end
$upscope $end
$scope begin wport[58] $end
$upscope $end
$scope begin wport[59] $end
$upscope $end
$scope begin wport[60] $end
$upscope $end
$scope begin wport[61] $end
$upscope $end
$scope begin wport[62] $end
$upscope $end
$scope begin wport[63] $end
$upscope $end
$upscope $end
$upscope $end
$scope module ctrl $end
$var wire 1 I clk $end
$var wire 1 8 last_it $end
$var wire 1 < n_tc $end
$var wire 1 = of_out $end
$var wire 1 ? p_correct $end
$var wire 1 G rst $end
$var wire 1 J valid $end
$var reg 1 ] i_clr $end
$var reg 1 ^ i_inc $end
$var reg 3 _ mode_leds [2:0] $end
$var reg 1 ` n_inc $end
$var reg 2 a next_state [1:0] $end
$var reg 1 b of_set $end
$var reg 1 c p_reflect $end
$var reg 1 d p_write $end
$var reg 1 e psi_ld $end
$var reg 1 f reset $end
$var reg 2 g state [1:0] $end
$upscope $end
$upscope $end
$upscope $end
$scope module SimonTest $end
$scope module simon $end
$scope module dpath $end
$scope module mem $end
$var reg 4 h \mem[0] [3:0] $end
$upscope $end
$upscope $end
$upscope $end
$upscope $end
$scope module SimonTest $end
$scope module simon $end
$scope module dpath $end
$scope module mem $end
$var reg 4 i \mem[1] [3:0] $end
$upscope $end
$upscope $end
$upscope $end
$upscope $end
$scope module SimonTest $end
$scope module simon $end
$scope module dpath $end
$scope module mem $end
$var reg 4 j \mem[2] [3:0] $end
$upscope $end
$upscope $end
$upscope $end
$upscope $end
$scope module SimonTest $end
$scope module simon $end
$scope module dpath $end
$scope module mem $end
$var reg 4 k \mem[3] [3:0] $end
$upscope $end
$upscope $end
$upscope $end
$upscope $end
$scope module SimonTest $end
$scope module simon $end
$scope module dpath $end
$scope module mem $end
$var reg 4 l \mem[4] [3:0] $end
$upscope $end
$upscope $end
$upscope $end
$upscope $end
$scope module SimonTest $end
$scope module simon $end
$scope module dpath $end
$scope module mem $end
$var reg 4 m \mem[5] [3:0] $end
$upscope $end
$upscope $end
$upscope $end
$upscope $end
$scope module SimonTest $end
$scope module simon $end
$scope module dpath $end
$scope module mem $end
$var reg 4 n \mem[6] [3:0] $end
$upscope $end
$upscope $end
$upscope $end
$upscope $end
$scope module SimonTest $end
$scope module simon $end
$scope module dpath $end
$scope module mem $end
$var reg 4 o \mem[7] [3:0] $end
$upscope $end
$upscope $end
$upscope $end
$upscope $end
$scope module SimonTest $end
$scope module simon $end
$scope module dpath $end
$scope module mem $end
$var reg 4 p \mem[8] [3:0] $end
$upscope $end
$upscope $end
$upscope $end
$upscope $end
$scope module SimonTest $end
$scope module simon $end
$scope module dpath $end
$scope module mem $end
$var reg 4 q \mem[9] [3:0] $end
$upscope $end
$upscope $end
$upscope $end
$upscope $end
$scope module SimonTest $end
$scope module simon $end
$scope module dpath $end
$scope module mem $end
$var reg 4 r \mem[10] [3:0] $end
$upscope $end
$upscope $end
$upscope $end
$upscope $end
$scope module SimonTest $end
$scope module simon $end
$scope module dpath $end
$scope module mem $end
$var reg 4 s \mem[11] [3:0] $end
$upscope $end
$upscope $end
$upscope $end
$upscope $end
$scope module SimonTest $end
$scope module simon $end
$scope module dpath $end
$scope module mem $end
$var reg 4 t \mem[12] [3:0] $end
$upscope $end
$upscope $end
$upscope $end
$upscope $end
$scope module SimonTest $end
$scope module simon $end
$scope module dpath $end
$scope module mem $end
$var reg 4 u \mem[13] [3:0] $end
$upscope $end
$upscope $end
$upscope $end
$upscope $end
$scope module SimonTest $end
$scope module simon $end
$scope module dpath $end
$scope module mem $end
$var reg 4 v \mem[14] [3:0] $end
$upscope $end
$upscope $end
$upscope $end
$upscope $end
$scope module SimonTest $end
$scope module simon $end
$scope module dpath $end
$scope module mem $end
$var reg 4 w \mem[15] [3:0] $end
$upscope $end
$upscope $end
$upscope $end
$upscope $end
$scope module SimonTest $end
$scope module simon $end
$scope module dpath $end
$scope module mem $end
$var reg 4 x \mem[16] [3:0] $end
$upscope $end
$upscope $end
$upscope $end
$upscope $end
$scope module SimonTest $end
$scope module simon $end
$scope module dpath $end
$scope module mem $end
$var reg 4 y \mem[17] [3:0] $end
$upscope $end
$upscope $end
$upscope $end
$upscope $end
$scope module SimonTest $end
$scope module simon $end
$scope module dpath $end
$scope module mem $end
$var reg 4 z \mem[18] [3:0] $end
$upscope $end
$upscope $end
$upscope $end
$upscope $end
$scope module SimonTest $end
$scope module simon $end
$scope module dpath $end
$scope module mem $end
$var reg 4 { \mem[19] [3:0] $end
$upscope $end
$upscope $end
$upscope $end
$upscope $end
$scope module SimonTest $end
$scope module simon $end
$scope module dpath $end
$scope module mem $end
$var reg 4 | \mem[20] [3:0] $end
$upscope $end
$upscope $end
$upscope $end
$upscope $end
$scope module SimonTest $end
$scope module simon $end
$scope module dpath $end
$scope module mem $end
$var reg 4 } \mem[21] [3:0] $end
$upscope $end
$upscope $end
$upscope $end
$upscope $end
$scope module SimonTest $end
$scope module simon $end
$scope module dpath $end
$scope module mem $end
$var reg 4 ~ \mem[22] [3:0] $end
$upscope $end
$upscope $end
$upscope $end
$upscope $end
$scope module SimonTest $end
$scope module simon $end
$scope module dpath $end
$scope module mem $end
$var reg 4 !" \mem[23] [3:0] $end
$upscope $end
$upscope $end
$upscope $end
$upscope $end
$scope module SimonTest $end
$scope module simon $end
$scope module dpath $end
$scope module mem $end
$var reg 4 "" \mem[24] [3:0] $end
$upscope $end
$upscope $end
$upscope $end
$upscope $end
$scope module SimonTest $end
$scope module simon $end
$scope module dpath $end
$scope module mem $end
$var reg 4 #" \mem[25] [3:0] $end
$upscope $end
$upscope $end
$upscope $end
$upscope $end
$scope module SimonTest $end
$scope module simon $end
$scope module dpath $end
$scope module mem $end
$var reg 4 $" \mem[26] [3:0] $end
$upscope $end
$upscope $end
$upscope $end
$upscope $end
$scope module SimonTest $end
$scope module simon $end
$scope module dpath $end
$scope module mem $end
$var reg 4 %" \mem[27] [3:0] $end
$upscope $end
$upscope $end
$upscope $end
$upscope $end
$scope module SimonTest $end
$scope module simon $end
$scope module dpath $end
$scope module mem $end
$var reg 4 &" \mem[28] [3:0] $end
$upscope $end
$upscope $end
$upscope $end
$upscope $end
$scope module SimonTest $end
$scope module simon $end
$scope module dpath $end
$scope module mem $end
$var reg 4 '" \mem[29] [3:0] $end
$upscope $end
$upscope $end
$upscope $end
$upscope $end
$scope module SimonTest $end
$scope module simon $end
$scope module dpath $end
$scope module mem $end
$var reg 4 (" \mem[30] [3:0] $end
$upscope $end
$upscope $end
$upscope $end
$upscope $end
$scope module SimonTest $end
$scope module simon $end
$scope module dpath $end
$scope module mem $end
$var reg 4 )" \mem[31] [3:0] $end
$upscope $end
$upscope $end
$upscope $end
$upscope $end
$scope module SimonTest $end
$scope module simon $end
$scope module dpath $end
$scope module mem $end
$var reg 4 *" \mem[32] [3:0] $end
$upscope $end
$upscope $end
$upscope $end
$upscope $end
$scope module SimonTest $end
$scope module simon $end
$scope module dpath $end
$scope module mem $end
$var reg 4 +" \mem[33] [3:0] $end
$upscope $end
$upscope $end
$upscope $end
$upscope $end
$scope module SimonTest $end
$scope module simon $end
$scope module dpath $end
$scope module mem $end
$var reg 4 ," \mem[34] [3:0] $end
$upscope $end
$upscope $end
$upscope $end
$upscope $end
$scope module SimonTest $end
$scope module simon $end
$scope module dpath $end
$scope module mem $end
$var reg 4 -" \mem[35] [3:0] $end
$upscope $end
$upscope $end
$upscope $end
$upscope $end
$scope module SimonTest $end
$scope module simon $end
$scope module dpath $end
$scope module mem $end
$var reg 4 ." \mem[36] [3:0] $end
$upscope $end
$upscope $end
$upscope $end
$upscope $end
$scope module SimonTest $end
$scope module simon $end
$scope module dpath $end
$scope module mem $end
$var reg 4 /" \mem[37] [3:0] $end
$upscope $end
$upscope $end
$upscope $end
$upscope $end
$scope module SimonTest $end
$scope module simon $end
$scope module dpath $end
$scope module mem $end
$var reg 4 0" \mem[38] [3:0] $end
$upscope $end
$upscope $end
$upscope $end
$upscope $end
$scope module SimonTest $end
$scope module simon $end
$scope module dpath $end
$scope module mem $end
$var reg 4 1" \mem[39] [3:0] $end
$upscope $end
$upscope $end
$upscope $end
$upscope $end
$scope module SimonTest $end
$scope module simon $end
$scope module dpath $end
$scope module mem $end
$var reg 4 2" \mem[40] [3:0] $end
$upscope $end
$upscope $end
$upscope $end
$upscope $end
$scope module SimonTest $end
$scope module simon $end
$scope module dpath $end
$scope module mem $end
$var reg 4 3" \mem[41] [3:0] $end
$upscope $end
$upscope $end
$upscope $end
$upscope $end
$scope module SimonTest $end
$scope module simon $end
$scope module dpath $end
$scope module mem $end
$var reg 4 4" \mem[42] [3:0] $end
$upscope $end
$upscope $end
$upscope $end
$upscope $end
$scope module SimonTest $end
$scope module simon $end
$scope module dpath $end
$scope module mem $end
$var reg 4 5" \mem[43] [3:0] $end
$upscope $end
$upscope $end
$upscope $end
$upscope $end
$scope module SimonTest $end
$scope module simon $end
$scope module dpath $end
$scope module mem $end
$var reg 4 6" \mem[44] [3:0] $end
$upscope $end
$upscope $end
$upscope $end
$upscope $end
$scope module SimonTest $end
$scope module simon $end
$scope module dpath $end
$scope module mem $end
$var reg 4 7" \mem[45] [3:0] $end
$upscope $end
$upscope $end
$upscope $end
$upscope $end
$scope module SimonTest $end
$scope module simon $end
$scope module dpath $end
$scope module mem $end
$var reg 4 8" \mem[46] [3:0] $end
$upscope $end
$upscope $end
$upscope $end
$upscope $end
$scope module SimonTest $end
$scope module simon $end
$scope module dpath $end
$scope module mem $end
$var reg 4 9" \mem[47] [3:0] $end
$upscope $end
$upscope $end
$upscope $end
$upscope $end
$scope module SimonTest $end
$scope module simon $end
$scope module dpath $end
$scope module mem $end
$var reg 4 :" \mem[48] [3:0] $end
$upscope $end
$upscope $end
$upscope $end
$upscope $end
$scope module SimonTest $end
$scope module simon $end
$scope module dpath $end
$scope module mem $end
$var reg 4 ;" \mem[49] [3:0] $end
$upscope $end
$upscope $end
$upscope $end
$upscope $end
$scope module SimonTest $end
$scope module simon $end
$scope module dpath $end
$scope module mem $end
$var reg 4 <" \mem[50] [3:0] $end
$upscope $end
$upscope $end
$upscope $end
$upscope $end
$scope module SimonTest $end
$scope module simon $end
$scope module dpath $end
$scope module mem $end
$var reg 4 =" \mem[51] [3:0] $end
$upscope $end
$upscope $end
$upscope $end
$upscope $end
$scope module SimonTest $end
$scope module simon $end
$scope module dpath $end
$scope module mem $end
$var reg 4 >" \mem[52] [3:0] $end
$upscope $end
$upscope $end
$upscope $end
$upscope $end
$scope module SimonTest $end
$scope module simon $end
$scope module dpath $end
$scope module mem $end
$var reg 4 ?" \mem[53] [3:0] $end
$upscope $end
$upscope $end
$upscope $end
$upscope $end
$scope module SimonTest $end
$scope module simon $end
$scope module dpath $end
$scope module mem $end
$var reg 4 @" \mem[54] [3:0] $end
$upscope $end
$upscope $end
$upscope $end
$upscope $end
$scope module SimonTest $end
$scope module simon $end
$scope module dpath $end
$scope module mem $end
$var reg 4 A" \mem[55] [3:0] $end
$upscope $end
$upscope $end
$upscope $end
$upscope $end
$scope module SimonTest $end
$scope module simon $end
$scope module dpath $end
$scope module mem $end
$var reg 4 B" \mem[56] [3:0] $end
$upscope $end
$upscope $end
$upscope $end
$upscope $end
$scope module SimonTest $end
$scope module simon $end
$scope module dpath $end
$scope module mem $end
$var reg 4 C" \mem[57] [3:0] $end
$upscope $end
$upscope $end
$upscope $end
$upscope $end
$scope module SimonTest $end
$scope module simon $end
$scope module dpath $end
$scope module mem $end
$var reg 4 D" \mem[58] [3:0] $end
$upscope $end
$upscope $end
$upscope $end
$upscope $end
$scope module SimonTest $end
$scope module simon $end
$scope module dpath $end
$scope module mem $end
$var reg 4 E" \mem[59] [3:0] $end
$upscope $end
$upscope $end
$upscope $end
$upscope $end
$scope module SimonTest $end
$scope module simon $end
$scope module dpath $end
$scope module mem $end
$var reg 4 F" \mem[60] [3:0] $end
$upscope $end
$upscope $end
$upscope $end
$upscope $end
$scope module SimonTest $end
$scope module simon $end
$scope module dpath $end
$scope module mem $end
$var reg 4 G" \mem[61] [3:0] $end
$upscope $end
$upscope $end
$upscope $end
$upscope $end
$scope module SimonTest $end
$scope module simon $end
$scope module dpath $end
$scope module mem $end
$var reg 4 H" \mem[62] [3:0] $end
$upscope $end
$upscope $end
$upscope $end
$upscope $end
$scope module SimonTest $end
$scope module simon $end
$scope module dpath $end
$scope module mem $end
$var reg 4 I" \mem[63] [3:0] $end
$upscope $end
$upscope $end
$upscope $end
$upscope $end
$enddefinitions $end
#0
$dumpvars
bx I"
bx H"
bx G"
bx F"
bx E"
bx D"
bx C"
bx B"
bx A"
bx @"
bx ?"
bx >"
bx ="
bx <"
bx ;"
bx :"
bx 9"
bx 8"
bx 7"
bx 6"
bx 5"
bx 4"
bx 3"
bx 2"
bx 1"
bx 0"
bx /"
bx ."
bx -"
bx ,"
bx +"
bx *"
bx )"
bx ("
bx '"
bx &"
bx %"
bx $"
bx #"
bx ""
bx !"
bx ~
bx }
bx |
bx {
bx z
bx y
bx x
bx w
bx v
bx u
bx t
bx s
bx r
bx q
bx p
bx o
bx n
bx m
bx l
bx k
bx j
bx i
bx h
bx g
0f
0e
0d
1c
0b
bx a
0`
b0 _
0^
0]
b0 \
bx [
bx Z
bx Y
1X
bx W
b0 V
xU
xT
xS
xR
bx Q
xP
xO
bx N
bx M
b0 L
bx K
1J
0I
0H
0G
0F
0E
0D
b0 C
b0 B
0A
1@
x?
0>
x=
x<
0;
b0 :
09
x8
07
06
05
04
b0 3
02
b0 1
b10000000 0
b0 /
b1000000 .
b0 -
b0 ,
b0 +
0*
b0 )
0(
b0 '
b0 &
x%
bx $
x#
z"
z!
$end
#10
1f
1F
14
1G
#30
0R
0<
0T
0=
0O
08
0X
0J
b0 a
b1 _
b1 '
b1 :
b0 h
b0 i
b0 j
b0 k
b0 l
b0 m
b0 n
b0 o
b0 p
b0 q
b0 r
b0 s
b0 t
b0 u
b0 v
b0 w
b0 x
b0 y
b0 z
b0 {
b0 |
b0 }
b0 ~
b0 !"
b0 ""
b0 #"
b0 $"
b0 %"
b0 &"
b0 '"
b0 ("
b0 )"
b0 *"
b0 +"
b0 ,"
b0 -"
b0 ."
b0 /"
b0 0"
b0 1"
b0 2"
b0 3"
b0 4"
b0 5"
b0 6"
b0 7"
b0 8"
b0 9"
b0 :"
b0 ;"
b0 <"
b0 ="
b0 >"
b0 ?"
b0 @"
b0 A"
b0 B"
b0 C"
b0 D"
b0 E"
b0 F"
b0 G"
b0 H"
b0 I"
b0 Q
b0 [
b111111 W
0S
0P
b0 g
1*
1I
1D
#40
0*
0I
0D
#60
1]
16
b1 _
b1 '
b1 :
0f
0F
04
0G
#80
12
19
#100
b1 _
b1 '
b1 :
1f
1F
0]
06
14
1G
#120
b1 a
b1 _
b1 '
b1 :
1X
1J
1P
b0 I"
b0 H"
b0 G"
b0 F"
b0 E"
b0 D"
b0 C"
b0 B"
b0 A"
b0 @"
b0 ?"
b0 >"
b0 ="
b0 <"
b0 ;"
b0 :"
b0 9"
b0 8"
b0 7"
b0 6"
b0 5"
b0 4"
b0 3"
b0 2"
b0 1"
b0 0"
b0 /"
b0 ."
b0 -"
b0 ,"
b0 +"
b0 *"
b0 )"
b0 ("
b0 '"
b0 &"
b0 %"
b0 $"
b0 #"
b0 ""
b0 !"
b0 ~
b0 }
b0 |
b0 {
b0 z
b0 y
b0 x
b0 w
b0 v
b0 u
b0 t
b0 s
b0 r
b0 q
b0 p
b0 o
b0 n
b0 m
b0 l
b0 k
b0 j
b0 i
b0 h
1*
1I
1D
#130
0*
0I
0D
#150
1]
16
1`
1;
1d
1A
b1 _
b1 '
b1 :
0f
0F
04
0G
#190
b10 a
1U
1?
b0 V
b0 )
b0 C
1O
18
b0 M
b0 Z
b0 K
b0 Y
0^
07
0c
0@
b10 _
b10 '
b10 :
1]
16
0`
0;
0d
0A
b0 h
b0 N
b1 Q
b1 [
b1 g
1*
1I
1D
#200
0*
0I
0D
#220
b0 a
1^
17
b100 _
b100 '
b100 :
1c
1@
0]
06
b10 g
1*
1I
1D
#230
0*
0I
0D
#240
b0 -
#270
0O
08
b1 K
b1 Y
b1 a
1]
16
1`
1;
1d
1A
b1 _
b1 '
b1 :
0^
07
b1 N
b0 g
1*
1I
1D
#280
0*
0I
0D
#290
b1 &
b1 /
b1 +
b1 -
#300
b1 a
b1 _
b1 '
b1 :
1]
16
1`
1;
1d
1A
0U
0?
b1 V
b1 )
b1 C
b1 3
b1 B
b1 L
b1 \
#320
b0 V
b0 )
b0 C
0U
0?
1^
17
0c
0@
b10 _
b10 '
b10 :
0]
06
0`
0;
0d
0A
b0 K
b0 Y
b1 g
b0 N
b10 Q
b10 [
b1 i
b0 M
b0 Z
1*
1I
1D
#330
0*
0I
0D
#340
b0 -
#350
b10 a
1]
16
b10 _
b10 '
b10 :
0c
0@
0^
07
1U
1?
b1 V
b1 )
b1 C
1O
18
b1 M
b1 Z
b1 K
b1 Y
b1 N
1*
1I
1D
#360
0*
0I
0D
#370
b1 -
#380
0U
0?
b1 V
b1 )
b1 C
0O
08
b11 a
0^
07
b100 _
b100 '
b100 :
1c
1@
1]
16
b0 M
b0 Z
b0 K
b0 Y
b10 g
b0 N
1*
1I
1D
#390
0*
0I
0D
#400
b0 -
#410
b10 a
1^
17
b100 _
b100 '
b100 :
0]
06
1U
1?
b0 V
b0 )
b0 C
b0 3
b0 B
b0 L
b0 \
#430
b11 a
1]
16
b100 _
b100 '
b100 :
0^
07
0U
0?
1O
18
b1 M
b1 Z
b1 K
b1 Y
b1 N
1*
1I
1D
#440
0*
0I
0D
#450
b1 -
#460
b0 a
1^
17
b100 _
b100 '
b100 :
0]
06
1U
1?
b1 V
b1 )
b1 C
b1 3
b1 B
b1 L
b1 \
#480
0U
0?
0O
08
b1 a
1]
16
1`
1;
1d
1A
b1 _
b1 '
b1 :
0^
07
b0 M
b0 Z
b10 K
b10 Y
b0 g
b10 N
1*
1I
1D
#490
0*
0I
0D
#500
b10 &
b10 /
b10 +
b10 -
#510
b10 V
b10 )
b10 C
b10 3
b10 B
b10 L
b10 \
#530
b0 V
b0 )
b0 C
0U
0?
b0 K
b0 Y
1^
17
0c
0@
b10 _
b10 '
b10 :
0]
06
0`
0;
0d
0A
b10 j
b0 M
b0 Z
b0 N
b11 Q
b11 [
b1 g
1*
1I
1D
#540
0*
0I
0D
#550
b0 -
#560
b1 V
b1 )
b1 C
b1 M
b1 Z
b1 K
b1 Y
b1 N
1*
1I
1D
#570
0*
0I
0D
#580
b1 -
#590
b10 a
1]
16
b10 _
b10 '
b10 :
0c
0@
0^
07
1U
1?
b10 V
b10 )
b10 C
1O
18
b10 M
b10 Z
b10 K
b10 Y
b10 N
1*
1I
1D
#600
0*
0I
0D
#610
b10 -
#620
0U
0?
b10 V
b10 )
b10 C
0O
08
b11 a
0^
07
b100 _
b100 '
b100 :
1c
1@
1]
16
b0 M
b0 Z
b0 K
b0 Y
b10 g
b0 N
1*
1I
1D
#630
0*
0I
0D
#640
b0 -
#650
b10 a
1^
17
b100 _
b100 '
b100 :
0]
06
1U
1?
b0 V
b0 )
b0 C
b0 3
b0 B
b0 L
b0 \
#670
b11 a
1]
16
b100 _
b100 '
b100 :
0^
07
0U
0?
b1 M
b1 Z
b1 K
b1 Y
b1 N
1*
1I
1D
#680
0*
0I
0D
#690
b1 -
#700
b10 a
1^
17
b100 _
b100 '
b100 :
0]
06
1U
1?
b1 V
b1 )
b1 C
b1 3
b1 B
b1 L
b1 \
#720
b11 a
1]
16
b100 _
b100 '
b100 :
0^
07
0U
0?
1O
18
b10 M
b10 Z
b10 K
b10 Y
b10 N
1*
1I
1D
#730
0*
0I
0D
#740
b10 -
#750
b0 a
1^
17
b100 _
b100 '
b100 :
0]
06
1U
1?
b10 V
b10 )
b10 C
b10 3
b10 B
b10 L
b10 \
#770
0U
0?
0O
08
b0 M
b0 Z
b11 K
b11 Y
b1 a
1]
16
1`
1;
1d
1A
b1 _
b1 '
b1 :
0^
07
b11 N
b0 g
1*
1I
1D
#780
0*
0I
0D
#790
b11 &
b11 /
b11 +
b11 -
#800
b11 V
b11 )
b11 C
b11 3
b11 B
b11 L
b11 \
#820
b0 V
b0 )
b0 C
0U
0?
1^
17
0c
0@
b10 _
b10 '
b10 :
0]
06
0`
0;
0d
0A
b0 K
b0 Y
b1 g
b0 N
b100 Q
b100 [
b11 k
b0 M
b0 Z
1*
1I
1D
#830
0*
0I
0D
#840
b0 -
#850
b1 V
b1 )
b1 C
b1 M
b1 Z
b1 K
b1 Y
b1 N
1*
1I
1D
#860
0*
0I
0D
#870
b1 -
#880
b10 V
b10 )
b10 C
b10 M
b10 Z
b10 K
b10 Y
b10 N
1*
1I
1D
#890
0*
0I
0D
#900
b10 -
#910
b10 a
1]
16
b10 _
b10 '
b10 :
0c
0@
0^
07
1U
1?
b11 V
b11 )
b11 C
1O
18
b11 M
b11 Z
b11 K
b11 Y
b11 N
1*
1I
1D
#920
0*
0I
0D
#930
b11 -
#940
0U
0?
b11 V
b11 )
b11 C
0O
08
b11 a
0^
07
b100 _
b100 '
b100 :
1c
1@
1]
16
b0 M
b0 Z
b0 K
b0 Y
b10 g
b0 N
1*
1I
1D
#950
0*
0I
0D
#960
b0 -
#970
b10 a
1^
17
b100 _
b100 '
b100 :
0]
06
1U
1?
b0 V
b0 )
b0 C
b0 3
b0 B
b0 L
b0 \
#990
b11 a
1]
16
b100 _
b100 '
b100 :
0^
07
0U
0?
b1 M
b1 Z
b1 K
b1 Y
b1 N
1*
1I
1D
#1000
0*
0I
0D
#1010
b1 -
#1020
b10 a
1^
17
b100 _
b100 '
b100 :
0]
06
1U
1?
b1 V
b1 )
b1 C
b1 3
b1 B
b1 L
b1 \
#1040
b11 a
1]
16
b100 _
b100 '
b100 :
0^
07
0U
0?
b10 M
b10 Z
b10 K
b10 Y
b10 N
1*
1I
1D
#1050
0*
0I
0D
#1060
b10 -
#1070
b10 a
1^
17
b100 _
b100 '
b100 :
0]
06
1U
1?
b10 V
b10 )
b10 C
b10 3
b10 B
b10 L
b10 \
#1090
b11 a
1]
16
b100 _
b100 '
b100 :
0^
07
0U
0?
1O
18
b11 M
b11 Z
b11 K
b11 Y
b11 N
1*
1I
1D
#1100
0*
0I
0D
#1110
b11 -
#1120
b0 a
1^
17
b100 _
b100 '
b100 :
0]
06
1U
1?
b11 V
b11 )
b11 C
b11 3
b11 B
b11 L
b11 \
#1140
0U
0?
0O
08
b1 a
1]
16
1`
1;
1d
1A
b1 _
b1 '
b1 :
0^
07
b0 M
b0 Z
b100 K
b100 Y
b0 g
b100 N
1*
1I
1D
#1150
0*
0I
0D
#1160
b100 &
b100 /
b100 +
b100 -
#1170
b100 V
b100 )
b100 C
b100 3
b100 B
b100 L
b100 \
#1190
b0 V
b0 )
b0 C
0U
0?
b0 K
b0 Y
1^
17
0c
0@
b10 _
b10 '
b10 :
0]
06
0`
0;
0d
0A
b100 l
b0 M
b0 Z
b0 N
b101 Q
b101 [
b1 g
1*
1I
1D
#1200
0*
0I
0D
#1210
b0 -
#1220
b1 V
b1 )
b1 C
b1 M
b1 Z
b1 K
b1 Y
b1 N
1*
1I
1D
#1230
0*
0I
0D
#1240
b1 -
#1250
b10 V
b10 )
b10 C
b10 M
b10 Z
b10 K
b10 Y
b10 N
1*
1I
1D
#1260
0*
0I
0D
#1270
b10 -
#1280
b11 V
b11 )
b11 C
b11 M
b11 Z
b11 K
b11 Y
b11 N
1*
1I
1D
#1290
0*
0I
0D
#1300
b11 -
#1310
b10 a
1]
16
b10 _
b10 '
b10 :
0c
0@
0^
07
1U
1?
b100 V
b100 )
b100 C
1O
18
b100 M
b100 Z
b100 K
b100 Y
b100 N
1*
1I
1D
#1320
0*
0I
0D
#1330
b100 -
#1340
0U
0?
b100 V
b100 )
b100 C
0O
08
b11 a
0^
07
b100 _
b100 '
b100 :
1c
1@
1]
16
b0 M
b0 Z
b0 K
b0 Y
b10 g
b0 N
1*
1I
1D
#1350
0*
0I
0D
#1360
b0 -
#1370
b10 a
1^
17
b100 _
b100 '
b100 :
0]
06
1U
1?
b0 V
b0 )
b0 C
b0 3
b0 B
b0 L
b0 \
#1390
b11 a
1]
16
b100 _
b100 '
b100 :
0^
07
0U
0?
b1 M
b1 Z
b1 K
b1 Y
b1 N
1*
1I
1D
#1400
0*
0I
0D
#1410
b1 -
#1420
b10 a
1^
17
b100 _
b100 '
b100 :
0]
06
1U
1?
b1 V
b1 )
b1 C
b1 3
b1 B
b1 L
b1 \
#1440
b11 a
1]
16
b100 _
b100 '
b100 :
0^
07
0U
0?
b10 M
b10 Z
b10 K
b10 Y
b10 N
1*
1I
1D
#1450
0*
0I
0D
#1460
b10 -
#1470
b10 a
1^
17
b100 _
b100 '
b100 :
0]
06
1U
1?
b10 V
b10 )
b10 C
b10 3
b10 B
b10 L
b10 \
