simon/SimonDatapathTest.vcd
$date
	Tue Nov 24 02:30:01 2015
$end
$version
	Icarus Verilog
$end
$timescale
	100ps
$end
$scope module SimonDatapathTest $end
$var wire 1 ! last_it $end
$var wire 1 " n_tc $end
$var wire 1 # of_out $end
$var wire 1 $ p_correct $end
$var wire 4 % pattern_leds [3:0] $end
$var wire 1 & valid $end
$var reg 1 ' clk $end
$var reg 1 ( i_clr $end
$var reg 1 ) i_inc $end
$var integer 32 * idx [31:0] $end
$var reg 1 + level $end
$var reg 1 , n_inc $end
$var reg 1 - of_set $end
$var reg 1 . p_reflect $end
$var reg 1 / p_write $end
$var reg 4 0 pattern [3:0] $end
$var reg 1 1 psi_ld $end
$var reg 1 2 reset $end
$scope module dpath $end
$var wire 1 3 clk $end
$var wire 1 4 i_clr $end
$var wire 1 5 i_inc $end
$var wire 6 6 k [5:0] $end
$var wire 1 7 level $end
$var wire 1 8 n_inc $end
$var wire 1 9 of_set $end
$var wire 1 : p_reflect $end
$var wire 1 ; p_write $end
$var wire 4 < pattern [3:0] $end
$var wire 1 = psi_ld $end
$var wire 4 > read_pattern [3:0] $end
$var wire 1 ? reset $end
$var reg 6 @ i [5:0] $end
$var reg 1 A last_it $end
$var reg 1 B lvl $end
$var reg 6 C n [5:0] $end
$var reg 1 D n_tc $end
$var reg 1 E of $end
$var reg 1 F of_out $end
$var reg 1 G p_correct $end
$var reg 4 H pattern_leds [3:0] $end
$var reg 6 I psi [5:0] $end
$var reg 1 J valid $end
$scope module mem $end
$var wire 1 3 clk $end
$var wire 6 K r_addr [5:0] $end
$var wire 4 L r_data [3:0] $end
$var wire 1 ? rst $end
$var wire 6 M w_addr [5:0] $end
$var wire 4 N w_data [3:0] $end
$var wire 1 ; w_en $end
$scope begin wport[0] $end
$upscope $end
$scope begin wport[1] $end
$upscope $end
$scope begin wport[2] $end
$upscope $end
$scope begin wport[3] $end
$upscope $end
$scope begin wport[4] $end
$upscope $end
$scope begin wport[5] $end
$upscope $end
$scope begin wport[6] $end
$upscope $end
$scope begin wport[7] $end
$upscope $end
$scope begin wport[8] $end
$upscope $end
$scope begin wport[9] $end
$upscope $end
$scope begin wport[10] $end
$upscope $end
$scope begin wport[11] $end
$upscope $end
$scope begin wport[12] $end
$upscope $end
$scope begin wport[13] $end
$upscope $end
$scope begin wport[14] $end
$upscope $end
$scope begin wport[15] $end
$upscope $end
$scope begin wport[16] $end
$upscope $end
$scope begin wport[17] $end
$upscope $end
$scope begin wport[18] $end
$upscope $end
$scope begin wport[19] $end
$upscope $end
$scope begin wport[20] $end
$upscope $end
$scope begin wport[21] $end
$upscope $end
$scope begin wport[22] $end
$upscope $end
$scope begin wport[23] $end
$upscope $end
$scope begin wport[24] $end
$upscope $end
$scope begin wport[25] $end
$upscope $end
$scope begin wport[26] $end
$upscope $end
$scope begin wport[27] $end
$upscope $end
$scope begin wport[28] $end
$upscope $end
$scope begin wport[29] $end
$upscope $end
$scope begin wport[30] $end
$upscope $end
$scope begin wport[31] $end
$upscope $end
$scope begin wport[32] $end
$upscope $end
$scope begin wport[33] $end
$upscope $end
$scope begin wport[34] $end
$upscope $end
$scope begin wport[35] $end
$upscope $end
$scope begin wport[36] $end
$upscope $end
$scope begin wport[37] $end
$upscope $end
$scope begin wport[38] $end
$upscope $end
$scope begin wport[39] $end
$upscope $end
$scope begin wport[40] $end
$upscope $end
$scope begin wport[41] $end
$upscope $end
$scope begin wport[42] $end
$upscope $end
$scope begin wport[43] $end
$upscope $end
$scope begin wport[44] $end
$upscope $end
$scope begin wport[45] $end
$upscope $end
$scope begin wport[46] $end
$upscope $end
$scope begin wport[47] $end
$upscope $end
$scope begin wport[48] $end
$upscope $end
$scope begin wport[49] $end
$upscope $end
$scope begin wport[50] $end
$upscope $end
$scope begin wport[51] $end
$upscope $end
$scope begin wport[52] $end
$upscope $end
$scope begin wport[53] $end
$upscope $end
$scope begin wport[54] $end
$upscope $end
$scope begin wport[55] $end
$upscope $end
$scope begin wport[56] $end
$upscope $end
$scope begin wport[57] $end
$upscope $end
$scope begin wport[58] $end
$upscope $end
$scope begin wport[59] $end
$upscope $end
$scope begin wport[60] $end
$upscope $end
$scope begin wport[61] $end
$upscope $end
$scope begin wport[62] $end
$upscope $end
$scope begin wport[63] $end
$upscope $end
$upscope $end
$upscope $end
$upscope $end
$scope module SimonDatapathTest $end
$scope module dpath $end
$scope module mem $end
$var reg 4 O \mem[0] [3:0] $end
$upscope $end
$upscope $end
$upscope $end
$scope module SimonDatapathTest $end
$scope module dpath $end
$scope module mem $end
$var reg 4 P \mem[1] [3:0] $end
$upscope $end
$upscope $end
$upscope $end
$scope module SimonDatapathTest $end
$scope module dpath $end
$scope module mem $end
$var reg 4 Q \mem[2] [3:0] $end
$upscope $end
$upscope $end
$upscope $end
$scope module SimonDatapathTest $end
$scope module dpath $end
$scope module mem $end
$var reg 4 R \mem[3] [3:0] $end
$upscope $end
$upscope $end
$upscope $end
$scope module SimonDatapathTest $end
$scope module dpath $end
$scope module mem $end
$var reg 4 S \mem[4] [3:0] $end
$upscope $end
$upscope $end
$upscope $end
$scope module SimonDatapathTest $end
$scope module dpath $end
$scope module mem $end
$var reg 4 T \mem[5] [3:0] $end
$upscope $end
$upscope $end
$upscope $end
$scope module SimonDatapathTest $end
$scope module dpath $end
$scope module mem $end
$var reg 4 U \mem[6] [3:0] $end
$upscope $end
$upscope $end
$upscope $end
$scope module SimonDatapathTest $end
$scope module dpath $end
$scope module mem $end
$var reg 4 V \mem[7] [3:0] $end
$upscope $end
$upscope $end
$upscope $end
$scope module SimonDatapathTest $end
$scope module dpath $end
$scope module mem $end
$var reg 4 W \mem[8] [3:0] $end
$upscope $end
$upscope $end
$upscope $end
$scope module SimonDatapathTest $end
$scope module dpath $end
$scope module mem $end
$var reg 4 X \mem[9] [3:0] $end
$upscope $end
$upscope $end
$upscope $end
$scope module SimonDatapathTest $end
$scope module dpath $end
$scope module mem $end
$var reg 4 Y \mem[10] [3:0] $end
$upscope $end
$upscope $end
$upscope $end
$scope module SimonDatapathTest $end
$scope module dpath $end
$scope module mem $end
$var reg 4 Z \mem[11] [3:0] $end
$upscope $end
$upscope $end
$upscope $end
$scope module SimonDatapathTest $end
$scope module dpath $end
$scope module mem $end
$var reg 4 [ \mem[12] [3:0] $end
$upscope $end
$upscope $end
$upscope $end
$scope module SimonDatapathTest $end
$scope module dpath $end
$scope module mem $end
$var reg 4 \ \mem[13] [3:0] $end
$upscope $end
$upscope $end
$upscope $end
$scope module SimonDatapathTest $end
$scope module dpath $end
$scope module mem $end
$var reg 4 ] \mem[14] [3:0] $end
$upscope $end
$upscope $end
$upscope $end
$scope module SimonDatapathTest $end
$scope module dpath $end
$scope module mem $end
$var reg 4 ^ \mem[15] [3:0] $end
$upscope $end
$upscope $end
$upscope $end
$scope module SimonDatapathTest $end
$scope module dpath $end
$scope module mem $end
$var reg 4 _ \mem[16] [3:0] $end
$upscope $end
$upscope $end
$upscope $end
$scope module SimonDatapathTest $end
$scope module dpath $end
$scope module mem $end
$var reg 4 ` \mem[17] [3:0] $end
$upscope $end
$upscope $end
$upscope $end
$scope module SimonDatapathTest $end
$scope module dpath $end
$scope module mem $end
$var reg 4 a \mem[18] [3:0] $end
$upscope $end
$upscope $end
$upscope $end
$scope module SimonDatapathTest $end
$scope module dpath $end
$scope module mem $end
$var reg 4 b \mem[19] [3:0] $end
$upscope $end
$upscope $end
$upscope $end
$scope module SimonDatapathTest $end
$scope module dpath $end
$scope module mem $end
$var reg 4 c \mem[20] [3:0] $end
$upscope $end
$upscope $end
$upscope $end
$scope module SimonDatapathTest $end
$scope module dpath $end
$scope module mem $end
$var reg 4 d \mem[21] [3:0] $end
$upscope $end
$upscope $end
$upscope $end
$scope module SimonDatapathTest $end
$scope module dpath $end
$scope module mem $end
$var reg 4 e \mem[22] [3:0] $end
$upscope $end
$upscope $end
$upscope $end
$scope module SimonDatapathTest $end
$scope module dpath $end
$scope module mem $end
$var reg 4 f \mem[23] [3:0] $end
$upscope $end
$upscope $end
$upscope $end
$scope module SimonDatapathTest $end
$scope module dpath $end
$scope module mem $end
$var reg 4 g \mem[24] [3:0] $end
$upscope $end
$upscope $end
$upscope $end
$scope module SimonDatapathTest $end
$scope module dpath $end
$scope module mem $end
$var reg 4 h \mem[25] [3:0] $end
$upscope $end
$upscope $end
$upscope $end
$scope module SimonDatapathTest $end
$scope module dpath $end
$scope module mem $end
$var reg 4 i \mem[26] [3:0] $end
$upscope $end
$upscope $end
$upscope $end
$scope module SimonDatapathTest $end
$scope module dpath $end
$scope module mem $end
$var reg 4 j \mem[27] [3:0] $end
$upscope $end
$upscope $end
$upscope $end
$scope module SimonDatapathTest $end
$scope module dpath $end
$scope module mem $end
$var reg 4 k \mem[28] [3:0] $end
$upscope $end
$upscope $end
$upscope $end
$scope module SimonDatapathTest $end
$scope module dpath $end
$scope module mem $end
$var reg 4 l \mem[29] [3:0] $end
$upscope $end
$upscope $end
$upscope $end
$scope module SimonDatapathTest $end
$scope module dpath $end
$scope module mem $end
$var reg 4 m \mem[30] [3:0] $end
$upscope $end
$upscope $end
$upscope $end
$scope module SimonDatapathTest $end
$scope module dpath $end
$scope module mem $end
$var reg 4 n \mem[31] [3:0] $end
$upscope $end
$upscope $end
$upscope $end
$scope module SimonDatapathTest $end
$scope module dpath $end
$scope module mem $end
$var reg 4 o \mem[32] [3:0] $end
$upscope $end
$upscope $end
$upscope $end
$scope module SimonDatapathTest $end
$scope module dpath $end
$scope module mem $end
$var reg 4 p \mem[33] [3:0] $end
$upscope $end
$upscope $end
$upscope $end
$scope module SimonDatapathTest $end
$scope module dpath $end
$scope module mem $end
$var reg 4 q \mem[34] [3:0] $end
$upscope $end
$upscope $end
$upscope $end
$scope module SimonDatapathTest $end
$scope module dpath $end
$scope module mem $end
$var reg 4 r \mem[35] [3:0] $end
$upscope $end
$upscope $end
$upscope $end
$scope module SimonDatapathTest $end
$scope module dpath $end
$scope module mem $end
$var reg 4 s \mem[36] [3:0] $end
$upscope $end
$upscope $end
$upscope $end
$scope module SimonDatapathTest $end
$scope module dpath $end
$scope module mem $end
$var reg 4 t \mem[37] [3:0] $end
$upscope $end
$upscope $end
$upscope $end
$scope module SimonDatapathTest $end
$scope module dpath $end
$scope module mem $end
$var reg 4 u \mem[38] [3:0] $end
$upscope $end
$upscope $end
$upscope $end
$scope module SimonDatapathTest $end
$scope module dpath $end
$scope module mem $end
$var reg 4 v \mem[39] [3:0] $end
$upscope $end
$upscope $end
$upscope $end
$scope module SimonDatapathTest $end
$scope module dpath $end
$scope module mem $end
$var reg 4 w \mem[40] [3:0] $end
$upscope $end
$upscope $end
$upscope $end
$scope module SimonDatapathTest $end
$scope module dpath $end
$scope module mem $end
$var reg 4 x \mem[41] [3:0] $end
$upscope $end
$upscope $end
$upscope $end
$scope module SimonDatapathTest $end
$scope module dpath $end
$scope module mem $end
$var reg 4 y \mem[42] [3:0] $end
$upscope $end
$upscope $end
$upscope $end
$scope module SimonDatapathTest $end
$scope module dpath $end
$scope module mem $end
$var reg 4 z \mem[43] [3:0] $end
$upscope $end
$upscope $end
$upscope $end
$scope module SimonDatapathTest $end
$scope module dpath $end
$scope module mem $end
$var reg 4 { \mem[44] [3:0] $end
$upscope $end
$upscope $end
$upscope $end
$scope module SimonDatapathTest $end
$scope module dpath $end
$scope module mem $end
$var reg 4 | \mem[45] [3:0] $end
$upscope $end
$upscope $end
$upscope $end
$scope module SimonDatapathTest $end
$scope module dpath $end
$scope module mem $end
$var reg 4 } \mem[46] [3:0] $end
$upscope $end
$upscope $end
$upscope $end
$scope module SimonDatapathTest $end
$scope module dpath $end
$scope module mem $end
$var reg 4 ~ \mem[47] [3:0] $end
$upscope $end
$upscope $end
$upscope $end
$scope module SimonDatapathTest $end
$scope module dpath $end
$scope module mem $end
$var reg 4 !" \mem[48] [3:0] $end
$upscope $end
$upscope $end
$upscope $end
$scope module SimonDatapathTest $end
$scope module dpath $end
$scope module mem $end
$var reg 4 "" \mem[49] [3:0] $end
$upscope $end
$upscope $end
$upscope $end
$scope module SimonDatapathTest $end
$scope module dpath $end
$scope module mem $end
$var reg 4 #" \mem[50] [3:0] $end
$upscope $end
$upscope $end
$upscope $end
$scope module SimonDatapathTest $end
$scope module dpath $end
$scope module mem $end
$var reg 4 $" \mem[51] [3:0] $end
$upscope $end
$upscope $end
$upscope $end
$scope module SimonDatapathTest $end
$scope module dpath $end
$scope module mem $end
$var reg 4 %" \mem[52] [3:0] $end
$upscope $end
$upscope $end
$upscope $end
$scope module SimonDatapathTest $end
$scope module dpath $end
$scope module mem $end
$var reg 4 &" \mem[53] [3:0] $end
$upscope $end
$upscope $end
$upscope $end
$scope module SimonDatapathTest $end
$scope module dpath $end
$scope module mem $end
$var reg 4 '" \mem[54] [3:0] $end
$upscope $end
$upscope $end
$upscope $end
$scope module SimonDatapathTest $end
$scope module dpath $end
$scope module mem $end
$var reg 4 (" \mem[55] [3:0] $end
$upscope $end
$upscope $end
$upscope $end
$scope module SimonDatapathTest $end
$scope module dpath $end
$scope module mem $end
$var reg 4 )" \mem[56] [3:0] $end
$upscope $end
$upscope $end
$upscope $end
$scope module SimonDatapathTest $end
$scope module dpath $end
$scope module mem $end
$var reg 4 *" \mem[57] [3:0] $end
$upscope $end
$upscope $end
$upscope $end
$scope module SimonDatapathTest $end
$scope module dpath $end
$scope module mem $end
$var reg 4 +" \mem[58] [3:0] $end
$upscope $end
$upscope $end
$upscope $end
$scope module SimonDatapathTest $end
$scope module dpath $end
$scope module mem $end
$var reg 4 ," \mem[59] [3:0] $end
$upscope $end
$upscope $end
$upscope $end
$scope module SimonDatapathTest $end
$scope module dpath $end
$scope module mem $end
$var reg 4 -" \mem[60] [3:0] $end
$upscope $end
$upscope $end
$upscope $end
$scope module SimonDatapathTest $end
$scope module dpath $end
$scope module mem $end
$var reg 4 ." \mem[61] [3:0] $end
$upscope $end
$upscope $end
$upscope $end
$scope module SimonDatapathTest $end
$scope module dpath $end
$scope module mem $end
$var reg 4 /" \mem[62] [3:0] $end
$upscope $end
$upscope $end
$upscope $end
$scope module SimonDatapathTest $end
$scope module dpath $end
$scope module mem $end
$var reg 4 0" \mem[63] [3:0] $end
$upscope $end
$upscope $end
$upscope $end
$enddefinitions $end
#0
$dumpvars
bx 0"
bx /"
bx ."
bx -"
bx ,"
bx +"
bx *"
bx )"
bx ("
bx '"
bx &"
bx %"
bx $"
bx #"
bx ""
bx !"
bx ~
bx }
bx |
bx {
bx z
bx y
bx x
bx w
bx v
bx u
bx t
bx s
bx r
bx q
bx p
bx o
bx n
bx m
bx l
bx k
bx j
bx i
bx h
bx g
bx f
bx e
bx d
bx c
bx b
bx a
bx `
bx _
bx ^
bx ]
bx \
bx [
bx Z
bx Y
bx X
bx W
bx V
bx U
bx T
bx S
bx R
bx Q
bx P
bx O
b0 N
bx M
bx L
bx K
1J
bx I
bx H
xG
xF
xE
xD
bx C
xB
xA
bx @
0?
bx >
0=
b0 <
0;
0:
09
08
07
bx 6
05
04
03
02
01
b0 0
0/
0.
0-
0,
0+
b1000000 *
0)
0(
0'
1&
bx %
x$
x#
x"
x!
$end
#10
12
1?
#30
1(
14
#70
1G
1$
b0 H
b0 %
0D
0"
0F
0#
0A
0!
0J
0&
b0 >
b0 L
b0 6
b0 K
b0 O
b0 P
b0 Q
b0 R
b0 S
b0 T
b0 U
b0 V
b0 W
b0 X
b0 Y
b0 Z
b0 [
b0 \
b0 ]
b0 ^
b0 _
b0 `
b0 a
b0 b
b0 c
b0 d
b0 e
b0 f
b0 g
b0 h
b0 i
b0 j
b0 k
b0 l
b0 m
b0 n
b0 o
b0 p
b0 q
b0 r
b0 s
b0 t
b0 u
b0 v
b0 w
b0 x
b0 y
b0 z
b0 {
b0 |
b0 }
b0 ~
b0 !"
b0 ""
b0 #"
b0 $"
b0 %"
b0 &"
b0 '"
b0 ("
b0 )"
b0 *"
b0 +"
b0 ,"
b0 -"
b0 ."
b0 /"
b0 0"
b0 @
b0 C
b0 M
b111111 I
0E
0B
1'
13
#80
0'
03
#100
02
0?
#120
0(
04
#140
0G
0$
1J
1&
b100 0
b100 <
b100 N
#160
b100 H
b100 %
1.
1:
#180
1'
13
#190
0'
03
#210
b1010 H
b1010 %
0J
0&
b1010 0
b1010 <
b1010 N
#230
1'
13
#240
0'
03
#260
b0 H
b0 %
0.
0:
#280
b1111 0
b1111 <
b1111 N
#300
1'
13
#310
0'
03
#330
1+
17
#350
1'
13
#360
0'
03
#380
0+
07
#400
12
1?
#420
1+
17
#440
b1010 0
b1010 <
b1010 N
#460
1J
1&
1B
b0 0"
b0 /"
b0 ."
b0 -"
b0 ,"
b0 +"
b0 *"
b0 )"
b0 ("
b0 '"
b0 &"
b0 %"
b0 $"
b0 #"
b0 ""
b0 !"
b0 ~
b0 }
b0 |
b0 {
b0 z
b0 y
b0 x
b0 w
b0 v
b0 u
b0 t
b0 s
b0 r
b0 q
b0 p
b0 o
b0 n
b0 m
b0 l
b0 k
b0 j
b0 i
b0 h
b0 g
b0 f
b0 e
b0 d
b0 c
b0 b
b0 a
b0 `
b0 _
b0 ^
b0 ]
b0 \
b0 [
b0 Z
b0 Y
b0 X
b0 W
b0 V
b0 U
b0 T
b0 S
b0 R
b0 Q
b0 P
b0 O
1'
13
#470
0'
03
#490
b1111 0
b1111 <
b1111 N
#510
b0 O
b0 P
b0 Q
b0 R
b0 S
b0 T
b0 U
b0 V
b0 W
b0 X
b0 Y
b0 Z
b0 [
b0 \
b0 ]
b0 ^
b0 _
b0 `
b0 a
b0 b
b0 c
b0 d
b0 e
b0 f
b0 g
b0 h
b0 i
b0 j
b0 k
b0 l
b0 m
b0 n
b0 o
b0 p
b0 q
b0 r
b0 s
b0 t
b0 u
b0 v
b0 w
b0 x
b0 y
b0 z
b0 {
b0 |
b0 }
b0 ~
b0 !"
b0 ""
b0 #"
b0 $"
b0 %"
b0 &"
b0 '"
b0 ("
b0 )"
b0 *"
b0 +"
b0 ,"
b0 -"
b0 ."
b0 /"
b0 0"
1'
13
#520
0'
03
#540
b100 0
b100 <
b100 N
#560
b0 0"
b0 /"
b0 ."
b0 -"
b0 ,"
b0 +"
b0 *"
b0 )"
b0 ("
b0 '"
b0 &"
b0 %"
b0 $"
b0 #"
b0 ""
b0 !"
b0 ~
b0 }
b0 |
b0 {
b0 z
b0 y
b0 x
b0 w
b0 v
b0 u
b0 t
b0 s
b0 r
b0 q
b0 p
b0 o
b0 n
b0 m
b0 l
b0 k
b0 j
b0 i
b0 h
b0 g
b0 f
b0 e
b0 d
b0 c
b0 b
b0 a
b0 `
b0 _
b0 ^
b0 ]
b0 \
b0 [
b0 Z
b0 Y
b0 X
b0 W
b0 V
b0 U
b0 T
b0 S
b0 R
b0 Q
b0 P
b0 O
1'
13
#570
0'
03
#590
1G
1$
b0 0
b0 <
b0 N
#610
b0 O
b0 P
b0 Q
b0 R
b0 S
b0 T
b0 U
b0 V
b0 W
b0 X
b0 Y
b0 Z
b0 [
b0 \
b0 ]
b0 ^
b0 _
b0 `
b0 a
b0 b
b0 c
b0 d
b0 e
b0 f
b0 g
b0 h
b0 i
b0 j
b0 k
b0 l
b0 m
b0 n
b0 o
b0 p
b0 q
b0 r
b0 s
b0 t
b0 u
b0 v
b0 w
b0 x
b0 y
b0 z
b0 {
b0 |
b0 }
b0 ~
b0 !"
b0 ""
b0 #"
b0 $"
b0 %"
b0 &"
b0 '"
b0 ("
b0 )"
b0 *"
b0 +"
b0 ,"
b0 -"
b0 ."
b0 /"
b0 0"
1'
13
#620
0'
03
#660
0+
07
#680
0J
0&
0B
b0 0"
b0 /"
b0 ."
b0 -"
b0 ,"
b0 +"
b0 *"
b0 )"
b0 ("
b0 '"
b0 &"
b0 %"
b0 $"
b0 #"
b0 ""
b0 !"
b0 ~
b0 }
b0 |
b0 {
b0 z
b0 y
b0 x
b0 w
b0 v
b0 u
b0 t
b0 s
b0 r
b0 q
b0 p
b0 o
b0 n
b0 m
b0 l
b0 k
b0 j
b0 i
b0 h
b0 g
b0 f
b0 e
b0 d
b0 c
b0 b
b0 a
b0 `
b0 _
b0 ^
b0 ]
b0 \
b0 [
b0 Z
b0 Y
b0 X
b0 W
b0 V
b0 U
b0 T
b0 S
b0 R
b0 Q
b0 P
b0 O
1'
13
#690
0'
03
#710
02
0?
#730
1-
19
#750
1(
14
#770
1F
1#
1E
1'
13
#780
0'
03
#800
0-
09
#820
0(
04
#840
1,
18
#860
1)
15
#880
b1 6
b1 K
b1 @
b1 C
b1 M
1'
13
#890
0'
03
#910
b10 6
b10 K
b10 @
b10 C
b10 M
1'
13
#920
0'
03
#940
b11 6
b11 K
b11 @
b11 C
b11 M
1'
13
#950
0'
03
#970
b100 6
b100 K
b100 @
b100 C
b100 M
1'
13
#980
0'
03
#1000
b101 6
b101 K
b101 @
b101 C
b101 M
1'
13
#1010
0'
03
#1030
b110 6
b110 K
b110 @
b110 C
b110 M
1'
13
#1040
0'
03
#1060
b111 6
b111 K
b111 @
b111 C
b111 M
1'
13
#1070
0'
03
#1090
b1000 6
b1000 K
b1000 @
b1000 C
b1000 M
1'
13
#1100
0'
03
#1120
b1001 6
b1001 K
b1001 @
b1001 C
b1001 M
1'
13
#1130
0'
03
#1150
b1010 6
b1010 K
b1010 @
b1010 C
b1010 M
1'
13
#1160
0'
03
#1180
b1011 6
b1011 K
b1011 @
b1011 C
b1011 M
1'
13
#1190
0'
03
#1210
b1100 6
b1100 K
b1100 @
b1100 C
b1100 M
1'
13
#1220
0'
03
#1240
b1101 6
b1101 K
b1101 @
b1101 C
b1101 M
1'
13
#1250
0'
03
#1270
b1110 6
b1110 K
b1110 @
b1110 C
b1110 M
1'
13
#1280
0'
03
#1300
b1111 6
b1111 K
b1111 @
b1111 C
b1111 M
1'
13
#1310
0'
03
#1330
b10000 6
b10000 K
b10000 @
b10000 C
b10000 M
1'
13
#1340
0'
03
#1360
b10001 6
b10001 K
b10001 @
b10001 C
b10001 M
1'
13
#1370
0'
03
#1390
b10010 6
b10010 K
b10010 @
b10010 C
b10010 M
1'
13
#1400
0'
03
#1420
b10011 6
b10011 K
b10011 @
b10011 C
b10011 M
1'
13
#1430
0'
03
#1450
b10100 6
b10100 K
b10100 @
b10100 C
b10100 M
1'
13
#1460
0'
03
#1480
b10101 6
b10101 K
b10101 @
b10101 C
b10101 M
1'
13
#1490
0'
03
#1510
b10110 6
b10110 K
b10110 @
b10110 C
b10110 M
1'
13
#1520
0'
03
#1540
b10111 6
b10111 K
b10111 @
b10111 C
b10111 M
1'
13
#1550
0'
03
#1570
b11000 6
b11000 K
b11000 @
b11000 C
b11000 M
1'
13
#1580
0'
03
#1600
b11001 6
b11001 K
b11001 @
b11001 C
b11001 M
1'
13
#1610
0'
03
#1630
b11010 6
b11010 K
b11010 @
b11010 C
b11010 M
1'
13
#1640
0'
03
#1660
b11011 6
b11011 K
b11011 @
b11011 C
b11011 M
1'
13
#1670
0'
03
#1690
b11100 6
b11100 K
b11100 @
b11100 C
b11100 M
1'
13
#1700
0'
03
#1720
b11101 6
b11101 K
b11101 @
b11101 C
b11101 M
1'
13
#1730
0'
03
#1750
b11110 6
b11110 K
b11110 @
b11110 C
b11110 M
1'
13
#1760
0'
03
#1780
b11111 6
b11111 K
b11111 @
b11111 C
b11111 M
1'
13
#1790
0'
03
#1810
b100000 6
b100000 K
b100000 @
b100000 C
b100000 M
1'
13
#1820
0'
03
#1840
b100001 6
b100001 K
b100001 @
b100001 C
b100001 M
1'
13
#1850
0'
03
#1870
b100010 6
b100010 K
b100010 @
b100010 C
b100010 M
1'
13
#1880
0'
03
#1900
b100011 6
b100011 K
b100011 @
b100011 C
b100011 M
1'
13
#1910
0'
03
#1930
b100100 6
b100100 K
b100100 @
b100100 C
b100100 M
1'
13
#1940
0'
03
#1960
b100101 6
b100101 K
b100101 @
b100101 C
b100101 M
1'
13
#1970
0'
03
#1990
b100110 6
b100110 K
b100110 @
b100110 C
b100110 M
1'
13
#2000
0'
03
#2020
b100111 6
b100111 K
b100111 @
b100111 C
b100111 M
1'
13
#2030
0'
03
#2050
b101000 6
b101000 K
b101000 @
b101000 C
b101000 M
1'
13
#2060
0'
03
#2080
b101001 6
b101001 K
b101001 @
b101001 C
b101001 M
1'
13
#2090
0'
03
#2110
b101010 6
b101010 K
b101010 @
b101010 C
b101010 M
1'
13
#2120
0'
03
#2140
b101011 6
b101011 K
b101011 @
b101011 C
b101011 M
1'
13
#2150
0'
03
#2170
b101100 6
b101100 K
b101100 @
b101100 C
b101100 M
1'
13
#2180
0'
03
#2200
b101101 6
b101101 K
b101101 @
b101101 C
b101101 M
1'
13
#2210
0'
03
#2230
b101110 6
b101110 K
b101110 @
b101110 C
b101110 M
1'
13
#2240
0'
03
#2260
b101111 6
b101111 K
b101111 @
b101111 C
b101111 M
1'
13
#2270
0'
03
#2290
b110000 6
b110000 K
b110000 @
b110000 C
b110000 M
1'
13
#2300
0'
03
#2320
b110001 6
b110001 K
b110001 @
b110001 C
b110001 M
1'
13
#2330
0'
03
#2350
b110010 6
b110010 K
b110010 @
b110010 C
b110010 M
1'
13
#2360
0'
03
#2380
b110011 6
b110011 K
b110011 @
b110011 C
b110011 M
1'
13
#2390
0'
03
#2410
b110100 6
b110100 K
b110100 @
b110100 C
b110100 M
1'
13
#2420
0'
03
#2440
b110101 6
b110101 K
b110101 @
b110101 C
b110101 M
1'
13
#2450
0'
03
#2470
b110110 6
b110110 K
b110110 @
b110110 C
b110110 M
1'
13
#2480
0'
03
#2500
b110111 6
b110111 K
b110111 @
b110111 C
b110111 M
1'
13
#2510
0'
03
#2530
b111000 6
b111000 K
b111000 @
b111000 C
b111000 M
1'
13
#2540
0'
03
#2560
b111001 6
b111001 K
b111001 @
b111001 C
b111001 M
1'
13
#2570
0'
03
#2590
b111010 6
b111010 K
b111010 @
b111010 C
b111010 M
1'
13
#2600
0'
03
#2620
b111011 6
b111011 K
b111011 @
b111011 C
b111011 M
1'
13
#2630
0'
03
#2650
b111100 6
b111100 K
b111100 @
b111100 C
b111100 M
1'
13
#2660
0'
03
#2680
b111101 6
b111101 K
b111101 @
b111101 C
b111101 M
1'
13
#2690
0'
03
#2710
b111110 6
b111110 K
b111110 @
b111110 C
b111110 M
1'
13
#2720
0'
03
#2740
1D
1"
1A
1!
b111111 6
b111111 K
b111111 @
b111111 C
b111111 M
1'
13
#2750
0'
03
#2770
0D
0"
0A
0!
b0 6
b0 K
b0 @
b0 C
b0 M
1'
13
#2780
0'
03
#2800
0,
08
#2820
0)
05
#2840
12
1?
#2860
0F
0#
0E
b0 0"
b0 /"
b0 ."
b0 -"
b0 ,"
b0 +"
b0 *"
b0 )"
b0 ("
b0 '"
b0 &"
b0 %"
b0 $"
b0 #"
b0 ""
b0 !"
b0 ~
b0 }
b0 |
b0 {
b0 z
b0 y
b0 x
b0 w
b0 v
b0 u
b0 t
b0 s
b0 r
b0 q
b0 p
b0 o
b0 n
b0 m
b0 l
b0 k
b0 j
b0 i
b0 h
b0 g
b0 f
b0 e
b0 d
b0 c
b0 b
b0 a
b0 `
b0 _
b0 ^
b0 ]
b0 \
b0 [
b0 Z
b0 Y
b0 X
b0 W
b0 V
b0 U
b0 T
b0 S
b0 R
b0 Q
b0 P
b0 O
1'
13
#2870
0'
03
#2890
02
0?
#2910
0G
0$
1J
1&
b1 0
b1 <
b1 N
#2930
1/
1;
#2970
1G
1$
b1 H
b1 %
b1 O
b1 >
b1 L
1'
13
#2980
0'
03
#3000
0/
0;
#3020
1,
18
#3040
1A
1!
b1 C
b1 M
1'
13
#3050
0'
03
#3070
0,
08
#3090
0G
0$
b10 0
b10 <
b10 N
#3110
1/
1;
#3130
b10 P
1'
13
#3140
0'
03
#3160
0/
0;
#3180
1)
15
#3200
1G
1$
b10 H
b10 %
0A
0!
b10 >
b10 L
b1 6
b1 K
b1 @
1'
13
#3210
0'
03
#3230
0)
05
#3250
1(
14
#3270
12
1?
#3290
0G
0$
b0 H
b0 %
b0 6
b0 K
b0 O
b0 P
b0 >
b0 L
b0 Q
b0 R
b0 S
b0 T
b0 U
b0 V
b0 W
b0 X
b0 Y
b0 Z
b0 [
b0 \
b0 ]
b0 ^
b0 _
b0 `
b0 a
b0 b
b0 c
b0 d
b0 e
b0 f
b0 g
b0 h
b0 i
b0 j
b0 k
b0 l
b0 m
b0 n
b0 o
b0 p
b0 q
b0 r
b0 s
b0 t
b0 u
b0 v
b0 w
b0 x
b0 y
b0 z
b0 {
b0 |
b0 }
b0 ~
b0 !"
b0 ""
b0 #"
b0 $"
b0 %"
b0 &"
b0 '"
b0 ("
b0 )"
b0 *"
b0 +"
b0 ,"
b0 -"
b0 ."
b0 /"
b0 0"
b0 @
b0 C
b0 M
1'
13
#3300
0'
03
#3320
02
0?
#3340
0(
04
#3360
1,
18
#3380
1A
1!
b1 C
b1 M
1'
13
#3390
0'
03
#3410
0A
0!
b10 C
b10 M
1'
13
#3420
0'
03
#3440
b11 C
b11 M
1'
13
#3450
0'
03
#3470
0,
08
#3490
1)
15
#3510
b1 6
b1 K
b1 @
1'
13
#3520
0'
03
#3540
1A
1!
b10 6
b10 K
b10 @
1'
13
#3550
0'
03
#3570
0)
05
#3590
1(
14
#3610
12
1?
